{
    "name"   : "NSO Commit Queue RFM Stop Unlock Responding",
    "description": [
        "Scenario with two devices and one is not responding and",
        "manual unlock on locked queue-item.",
        " - error-option -> stop-on-error",
        " - atomic       -> true"
    ],
    "parameters" : {
        "SERVICE" : "../common/TOP-A-stacked-RFM-resources.xml",
        "SHOW_INSTANCES" : [ "/top:top",
                             "/devices/device{lower-nso-1}/config/rfs-vlan:services/vlan",
                             "/devices/device{lower-nso-2}/config/rfs-vlan:services/vlan" ],
        "DEL_INSTANCES" : [ "/top:top", "/top:resources-top/vid",
                            "/devices/device{lower-nso-1}/config/rfs-vlan:services/vlan",
                            "/devices/device{lower-nso-2}/config/rfs-vlan:services/vlan" ]
    },
    "steps" : [
       {
         "name" : "Creating unique tag to track the transaction.",
         "cmd-type" : "set-tag",
         "value"  : "Service (A)-{random}"
       },
       {
         "name" : "Check the commit-queue tag",
         "cmd-type" : "pause"
       },
       {
         "name" : "Stop netsim device ex0",
         "cmd-type" : "shell",
         "cmd" : "ncs-netsim stop ex0"
       },
       {
         "name" : "Create TOP Service Instance(A) [ex0, ex3]",
         "cmd-type" : "load-config",
         "mode" : "merge",
         "file" :  "{param:SERVICE}"
       },
       {
         "name" : "Commit Changes (A)",
         "cmd-type" : "commit",
         "flags" : "commit-queue=async,commit-queue-atomic=true,commit-queue-error-option=stop-on-error,commit-queue-tag={tag}",
         "display" : "flags"
       },
       {
         "name" : "Service instances",
         "cmd-type" : "display-list",
         "path"  : "{param:SHOW_INSTANCES}",
         "instances" : [ [["A"]], [], [] ]
       },
       {
         "name" : "Display Commit Queue(s)",
         "cmd-type" : "display-cq-active",
         "display" : "table"
       },
       {
         "name" : "Setting allocated VLAN ID to 1",
         "cmd-type" : "set-values",
         "values" : { "/top:resources-top/vid": "100" }
       },
       {
         "name" : "Check 'allocated' VLAN id",
         "cmd-type" : "pause",
         "msg" : "Hit return to re-deploy service"
       },
       {
         "name" : "Reactive re-deploy of service",
         "cmd-type" : "execute-action",
         "action" : "reactive-re-deploy",
         "path" : [ "/top:top{A}" ]
       },
       {
         "name" : "Delay to allow for service instances to be created",
         "cmd-type" : "delay",
         "time" : "2.5"
       },
       {
         "name" : "Service instances",
         "cmd-type" : "display-list",
         "path"  : "{param:SHOW_INSTANCES}",
         "instances" : [ [["A"]], [["ex0-A"]], [["ex3-A"]] ]
       },
       {
         "name" : "Display Commit Queue(s)",
         "cmd-type" : "display-cq-active",
         "display" : "table"
       },
       {
         "name" : "Wait for commit queues to lock",
         "cmd-type" : "display-cq-active",
         "wait" : "locked"
       },
       {
         "name" : "Commit-queue is now locked",
         "cmd-type" : "pause",
         "msg" : "Hit return to unlock item"
       },
       {
         "name" : "Start netsim device ex0",
         "cmd-type" : "shell",
         "cmd" : "ncs-netsim start ex0"
       },
       {
         "name" : "Unlock active commit queue item",
         "cmd-type" : "commit-queue-unlock"
       },
       {
         "name" : "Wait for commit queues to drain",
         "cmd-type" : "commit-queue-wait-empty"
       },
       {
         "name" : "Display Commit Queue Complete",
         "cmd-type" : "display-cq-complete",
         "display" : "table,all"
       },
       {
         "name" : "Service instances",
         "cmd-type" : "display-list",
         "path"  : "{param:SHOW_INSTANCES}",
         "instances" : [ [["A"]], [["ex0-A"]], [["ex3-A"]] ]
       },
       {
         "name" : "Check commit queue(s)",
         "cmd-type" : "pause",
         "msg" :  "Observe if Rollback has occurred and hit return to continue"
       },
       {
         "name" : "Check device sync status",
         "cmd-type" : "check-sync",
         "devices" : [ "lower-nso-1", "lower-nso-2", "lower-nso-1/ex0", "lower-nso-2/ex3" ],
         "match" : "all-lines,subset-values-per-line",
         "pattern" : [
                        { "device": "lower-nso-1", "result": "*" },
                        { "device": "lower-nso-2", "result": "*" },
                        { "device": "ex0", "result": "out-of-sync" },
                        { "device": "ex3", "result": "in-sync" }
                     ]
       },
       {
         "name" : "Check the check-sync status",
         "cmd-type" : "pause"
       },
       {
         "name" : "Sync from devices",
         "cmd-type" : "sync-from",
         "devices" : [ "lower-nso-1/ex0", "lower-nso-2/ex3" ]
       },
       {
         "name" : "Sync from rfs node",
         "cmd-type" : "sync-from",
         "devices" : [ "lower-nso-1" ]
       },
       {
         "name" : "Cleanup (delete TOP service instance) ",
         "cmd-type" : "delete",
         "path" : "{param:DEL_INSTANCES}"
       },
       {
         "name" : "Commit Cleanup",
         "cmd-type" : "commit"
       }
     ]
}
