{
    "name"   : "NSO Commit Queue Continue Non-Atomic",
    "description": [
        "Scenario with two devices and one is not responding.",
        " - error-option -> continue-on-error",
        " - atomic       -> false"
    ],
    "parameters" : {
        "SERVICE" : "../common/TOP-A-stacked.xml",
        "SHOW_INSTANCES" : [ "/top:top", "/devices/device{lower-nso-1}/config/rfs-vlan:services/vlan" ],
        "DEL_INSTANCES" : [ "/top:top" ]
    },
    "steps" : [
       {
         "name" : "Stop netsim device ex0",
         "cmd-type" : "shell",
         "cmd" : "ncs-netsim stop ex0"
       },
       {
         "name" : "Create TOP Service Instance(A) [ex0, ex1]",
         "cmd-type" : "load-config",
         "mode" : "merge",
         "file" :  "{param:SERVICE}"
       },
       {
         "name" : "Commit Changes (A)",
         "cmd-type" : "commit",
         "flags" : "commit-queue=async,commit-queue-atomic=false,commit-queue-error-option=continue-on-error,commit-queue-tag=Service (A)"
       },
       {
         "name" : "Service instances",
         "cmd-type" : "display-list",
         "path"  : "{param:SHOW_INSTANCES}",
         "instances" : [ [["A"]], [["ex0-A"], ["ex1-A"]] ]
       },
       {
         "name" : "Display Commit Queue(s)",
         "cmd-type" : "display-cq-active"
       },
       {
         "name" : "Check commit queue(s)",
         "cmd-type" : "pause",
         "msg" :  "Verify commit-queue(s) and hit return to continue"
       },
       {
         "name" : "Wait for commit queues to drain",
         "cmd-type" : "commit-queue-wait-empty"
       },
       {
         "name" : "Display Commit Queue Complete",
         "cmd-type" : "display-cq-complete"
       },
       {
         "name" : "Service instances",
         "cmd-type" : "display-list",
         "path"  : "{param:SHOW_INSTANCES}",
         "instances" : [ [["A"]], [["ex0-A"], ["ex1-A"]] ]
       },
       {
         "name" : "Start netsim device ex0",
         "cmd-type" : "shell",
         "cmd" : "ncs-netsim start ex0"
       },
       {
         "name" : "Check device sync status",
         "cmd-type" : "check-sync",
         "devices" : [ "lower-nso-1", "lower-nso-2", "lower-nso-1/ex0", "lower-nso-1/ex1" ],
         "match" : "all-lines,subset-values-per-line",
         "pattern" : [
                        { "device": "lower-nso-1", "result": "*" },
                        { "device": "lower-nso-2", "result": "*" },
                        { "device": "ex0", "result": "out-of-sync" },
                        { "device": "ex1", "result": "in-sync" }
                     ]
       },
       {
         "name" : "Check commit queue(s)",
         "cmd-type" : "pause",
         "msg" :  "Observe if Rollback has NOT occurred and hit return to continue"
       },
       {
         "name" : "Sync from devices",
         "cmd-type" : "sync-from",
         "devices" : [ "lower-nso-1/ex0", "lower-nso-1/ex1" ]
       },
       {
         "name" : "Sync from rfs node",
         "cmd-type" : "sync-from",
         "devices" : [ "lower-nso-1" ]
       },
       {
         "name" : "Cleanup (delete TOP service instance) ",
         "cmd-type" : "delete",
         "path" : "{param:DEL_INSTANCES}"
       },
       {
         "name" : "Commit Cleanup",
         "cmd-type" : "commit"
       }
     ]
}
