{
    "name"   : "NSO Commit Queue Rollback (Simple, no stacked services)",
    "description": [
        "Scenario with two devices and one is not responding.",
        " - error-option -> rollback-on-error",
        " - atomic       -> true"
    ],
    "parameters" : {
        "SERVICE" : "../common/TOP-A-stacked.xml",
        "SHOW_INSTANCES" : [ "/top:top", "/rfs-vlan:services/vlan" ],
        "DEL_INSTANCES" : [ "/top:top" ]
    },
    "steps" : [
       {
         "name" : "Stop netsim device ex0",
         "cmd-type" : "shell",
         "cmd" : "ncs-netsim stop ex0"
       },
       {
         "name" : "Create VLANe Service Instance(A) [ex0, ex1]",
         "cmd-type" : "load-config",
         "mode" : "merge",
         "file" :  "../common/RFS-VLAN-A.xml"
       },
       {
         "name" : "Commit Changes (A)",
         "cmd-type" : "commit",
         "flags" : "commit-queue=async,commit-queue-atomic=true,commit-queue-error-option=rollback-on-error,commit-queue-tag=Service (A)"
       },
       {
         "name" : "Display Commit Queue(s)",
         "cmd-type" : "display-cq-active"
       },
       {
         "name" : "Wait for commit queues to drain",
         "cmd-type" : "commit-queue-wait-empty"
       },
       {
         "name" : "Display Commit Queue Complete",
         "cmd-type" : "display-cq-complete"
       },
       {
         "name" : "Check commit queue(s)",
         "cmd-type" : "pause",
         "msg" :  "Observe if Rollback has occurred"
       },
       {
         "name" : "Start netsim device ex0",
         "cmd-type" : "shell",
         "cmd" : "ncs-netsim start ex0"
       },
       {
         "name" : "Connect to device ex0",
         "cmd-type" : "connect",
         "devices" : ["ex0"]
       },
       {
         "name" : "Cleanup (delete VLAN service instance) ",
         "cmd-type" : "delete",
         "path" : ["/rfs-vlan:services/vlan"]
       },
       {
         "name" : "Commit Cleanup",
         "cmd-type" : "commit"
       }
     ]
}
