{
    "name"   : "NSO Commit Queue Transient Error Non-Atomic Rollback-On-Error Device Rejecting",
    "description" : "This scenario requires manual intervention to reject the configuration in device ex0",
    "parameters" : {
        "SERVICE" : "../common/TOP-A-direct.xml",
        "SHOW_INSTANCES" : [ "/top:top" ],
        "DEL_INSTANCES" : [ "/top:top" ]
    },
    "steps" : [
       {
         "name" : "Set retry-attempts to unlimited",
         "cmd-type" : "set-global-settings",
         "cmd" : {
            "commit-queue/retry-attempts": "unlimited"
         }
       },
       {
         "name" : "Start NSO Netsim Control Panel",
         "cmd-type" : "pause",
         "msg" : [ "Enable manual acceptance of transactions for devices ex0, ex1.",
                   "Hit return to continue" ]
       },
       {
         "name" : "Create TOP Service Instance(A) [ex0, ex1]",
         "cmd-type" : "load-config",
         "mode" : "merge",
         "file" :  "{param:SERVICE}"
       },
       {
         "name" : "Commit Changes (A)",
         "cmd-type" : "commit",
         "flags" : "commit-queue=async,commit-queue-atomic=false,commit-queue-error-option=rollback-on-error,commit-queue-tag=Service (A)"
       },
       {
         "name" : "Service instances",
         "cmd-type" : "display-list",
         "path"  : "{param:SHOW_INSTANCES}"
       },
       {
         "name" : "Display Commit Queue(s)",
         "cmd-type" : "display-cq-active"
       },
       {
         "name" : "Check commit queue(s)",
         "cmd-type" : "pause",
         "msg" :  ["Verify commit-queue(s), reject transaction in device ex0 and",
                   "hit return to continue"]
       },
       {
         "name" : "Wait for commit queues to drain",
         "cmd-type" : "display-cq-active",
         "wait" : "empty"
       },
       {
         "name" : "Display Commit Queue Complete",
         "cmd-type" : "display-cq-complete"
       },
       {
         "name" : "Service instances",
         "cmd-type" : "display-list",
         "path"  : "{param:SHOW_INSTANCES}"
       },
       {
         "name" : "Check commit queue(s)",
         "cmd-type" : "pause",
         "msg" :  "Observe the successful transaction and hit return to continue"
       },
       {
         "name" : "Check device sync status",
         "cmd-type" : "check-sync",
         "devices" : [ "ex0", "ex1" ],
         "match" : "all-lines,subset-values-per-line",
         "pattern" : [
                        { "device": "ex0", "result": "in-sync" },
                        { "device": "ex1", "result": "in-sync" }
                     ]
       },
       {
         "name" : "Cleanup (delete TOP service instance) ",
         "cmd-type" : "delete",
         "path" : "{param:DEL_INSTANCES}"
       },
       {
         "name" : "Commit Cleanup",
         "cmd-type" : "commit"
       },
       {
         "name" : "Set global settings to default values",
         "cmd-type" : "restore-global-settings"
       }
     ]
}
