{
    "name"   : "Create a service with using commit queues (atomic=false, rollback-on-error)",
    "description": [
        "Create a service a see how the transaction propagates",
        "to the device(s) with atomic=false, error-option=rollback-on-error."
    ],
    "parameters" : {
        "SERVICE" : "../common/TOP-A-stacked.xml",
        "SHOW_INSTANCES" : [ "/top:top", "/rfs-vlan:services/vlan" ],
        "DEL_INSTANCES" : [ "/top:top", "/rfs-vlan:services/vlan" ]
    },
    "steps" : [
       {
         "name" : "Increase timeouts",
         "cmd-type" : "set-device-settings",
         "devices": [ "ex0", "ex1" ],
         "values": {
            "read-timeout": "1000",
            "write-timeout": "1000"
         }
       },
       {
         "name" : "Create TOP Service Instance(A) [ex0, ex1]",
         "cmd-type" : "load-config",
         "mode" : "merge",
         "file" :  "{param:SERVICE}"
       },
       {
         "name" : "Create service",
         "cmd-type" : "pause",
         "msg" :  "Hit return to continue and create service"
       },
       {
         "name" : "Commit Changes (A)",
         "cmd-type" : "commit",
         "flags" : "commit-queue=async,commit-queue-atomic=false,commit-queue-error-option=rollback-on-error,commit-queue-tag=Service (A)"
       },
       {
         "name" : "Service instances",
         "cmd-type" : "display-list",
         "path"  : "{param:SHOW_INSTANCES}"
       },
       {
         "name" : "Display Commit Queue(s)",
         "cmd-type" : "display-cq-active"
       },
       {
         "name" : "Wait for commit queues to drain",
         "cmd-type" : "display-cq-active",
         "wait" : "empty"
       },
       {
         "name" : "Display Commit Queue Complete",
         "cmd-type" : "display-cq-complete"
       },
       {
         "name" : "Service instances",
         "cmd-type" : "display-list",
         "path"  : "{param:SHOW_INSTANCES}"
       },
       {
         "name" : "Check device sync status",
         "cmd-type" : "check-sync",
         "devices" : [ "ex0", "ex1" ]
       },
       {
         "name" : "Check service instances",
         "cmd-type" : "pause",
         "msg" :  "Hit return to continue and cleanup"
       },
       {
         "name" : "Cleanup (delete TOP service instance) ",
         "cmd-type" : "delete",
         "path" : "{param:DEL_INSTANCES}"
       },
       {
         "name" : "Commit Cleanup",
         "cmd-type" : "commit"
       },
       {
         "name" : "Set device to default values",
         "cmd-type" : "restore-device-settings",
         "devices": [ "ex0", "ex1" ]
       }
     ]
}
